<?xml version="1.0" encoding="UTF-8" standalone="no"?>
<!-- Created with Inkscape (http://www.inkscape.org/) -->

<svg
   xmlns:dc="http://purl.org/dc/elements/1.1/"
   xmlns:cc="http://creativecommons.org/ns#"
   xmlns:rdf="http://www.w3.org/1999/02/22-rdf-syntax-ns#"
   xmlns:svg="http://www.w3.org/2000/svg"
   xmlns="http://www.w3.org/2000/svg"
   xmlns:sodipodi="http://sodipodi.sourceforge.net/DTD/sodipodi-0.dtd"
   xmlns:inkscape="http://www.inkscape.org/namespaces/inkscape"
   width="210mm"
   height="297mm"
   viewBox="0 0 744.09448819 1052.3622047"
   id="svg3346"
   version="1.1"
   inkscape:version="0.91 r13725"
   sodipodi:docname="DBSCAN nedeterminizmus.svg">
  <defs
     id="defs3348" />
  <sodipodi:namedview
     id="base"
     pagecolor="#ffffff"
     bordercolor="#666666"
     borderopacity="1.0"
     inkscape:pageopacity="0.0"
     inkscape:pageshadow="2"
     inkscape:zoom="0.88"
     inkscape:cx="198.29545"
     inkscape:cy="666.34146"
     inkscape:document-units="px"
     inkscape:current-layer="layer1"
     showgrid="false"
     inkscape:object-nodes="true"
     inkscape:window-width="1920"
     inkscape:window-height="1028"
     inkscape:window-x="-8"
     inkscape:window-y="-8"
     inkscape:window-maximized="1" />
  <metadata
     id="metadata3351">
    <rdf:RDF>
      <cc:Work
         rdf:about="">
        <dc:format>image/svg+xml</dc:format>
        <dc:type
           rdf:resource="http://purl.org/dc/dcmitype/StillImage" />
        <dc:title></dc:title>
      </cc:Work>
    </rdf:RDF>
  </metadata>
  <g
     inkscape:label="Vrstva 1"
     inkscape:groupmode="layer"
     id="layer1">
    <ellipse
       style="display:inline;opacity:1;fill:#c83737;fill-opacity:0.48235294;stroke:#d4aa00;stroke-width:0.84623498"
       id="path3865-6"
       cx="277.48801"
       cy="529.28033"
       rx="106.64713"
       ry="72.762764"
       transform="matrix(0.91777969,-0.39708996,0.38407184,0.92330321,0,0)" />
    <ellipse
       style="display:inline;opacity:1;fill:#0000ff;fill-opacity:0.48235294;stroke:#d4aa00;stroke-width:0.78988653"
       id="path3865-5"
       cx="571.9104"
       cy="93.240814"
       rx="64.122307"
       ry="105.43789"
       transform="matrix(0.66040157,0.75091262,-0.717445,0.69661515,0,0)" />
    <flowRoot
       xml:space="preserve"
       id="flowRoot3633"
       style="font-style:normal;font-weight:normal;font-size:40px;line-height:125%;font-family:sans-serif;letter-spacing:0px;word-spacing:0px;fill:#000000;fill-opacity:1;stroke:none;stroke-width:1px;stroke-linecap:butt;stroke-linejoin:miter;stroke-opacity:1"><flowRegion
         id="flowRegion3635"><rect
           id="rect3637"
           width="24.390244"
           height="375.60974"
           x="171.95122"
           y="254.80122" /></flowRegion><flowPara
         id="flowPara3639">2020ghhh</flowPara><flowPara
         id="flowPara3641" /></flowRoot>    <text
       xml:space="preserve"
       style="font-style:normal;font-weight:normal;font-size:40px;line-height:125%;font-family:sans-serif;letter-spacing:0px;word-spacing:0px;fill:#000000;fill-opacity:1;stroke:none;stroke-width:1px;stroke-linecap:butt;stroke-linejoin:miter;stroke-opacity:1"
       x="178.04878"
       y="282.85001"
       id="text3643"
       sodipodi:linespacing="125%"><tspan
         sodipodi:role="line"
         id="tspan3645"
         x="178.04878"
         y="282.85001" /><tspan
         sodipodi:role="line"
         x="178.04878"
         y="332.85001"
         id="tspan3647" /><tspan
         sodipodi:role="line"
         x="178.04878"
         y="382.85001"
         id="tspan3649" /></text>
    <text
       xml:space="preserve"
       style="font-style:normal;font-weight:normal;font-size:40px;line-height:125%;font-family:sans-serif;letter-spacing:0px;word-spacing:0px;fill:#000000;fill-opacity:1;stroke:none;stroke-width:1px;stroke-linecap:butt;stroke-linejoin:miter;stroke-opacity:1"
       x="165.85364"
       y="245.04514"
       id="text3651"
       sodipodi:linespacing="125%"><tspan
         sodipodi:role="line"
         x="165.85364"
         y="245.04514"
         id="tspan3655"
         style="font-style:normal;font-variant:normal;font-weight:normal;font-stretch:normal;font-size:20px;font-family:Arial;-inkscape-font-specification:Arial">8</tspan><tspan
         sodipodi:role="line"
         x="165.85364"
         y="270.04514"
         style="font-style:normal;font-variant:normal;font-weight:normal;font-stretch:normal;font-size:20px;font-family:Arial;-inkscape-font-specification:Arial"
         id="tspan3711" /><tspan
         sodipodi:role="line"
         x="165.85364"
         y="295.04514"
         style="font-style:normal;font-variant:normal;font-weight:normal;font-stretch:normal;font-size:20px;font-family:Arial;-inkscape-font-specification:Arial"
         id="tspan3713">7</tspan><tspan
         sodipodi:role="line"
         x="165.85364"
         y="320.04514"
         style="font-style:normal;font-variant:normal;font-weight:normal;font-stretch:normal;font-size:20px;font-family:Arial;-inkscape-font-specification:Arial"
         id="tspan3707" /><tspan
         sodipodi:role="line"
         x="165.85364"
         y="345.04514"
         style="font-style:normal;font-variant:normal;font-weight:normal;font-stretch:normal;font-size:20px;font-family:Arial;-inkscape-font-specification:Arial"
         id="tspan3709">6</tspan><tspan
         sodipodi:role="line"
         x="165.85364"
         y="370.04514"
         style="font-style:normal;font-variant:normal;font-weight:normal;font-stretch:normal;font-size:20px;font-family:Arial;-inkscape-font-specification:Arial"
         id="tspan3683" /><tspan
         sodipodi:role="line"
         x="165.85364"
         y="395.04514"
         style="font-style:normal;font-variant:normal;font-weight:normal;font-stretch:normal;font-size:20px;font-family:Arial;-inkscape-font-specification:Arial"
         id="tspan3685">5</tspan><tspan
         sodipodi:role="line"
         x="165.85364"
         y="420.04514"
         style="font-style:normal;font-variant:normal;font-weight:normal;font-stretch:normal;font-size:20px;font-family:Arial;-inkscape-font-specification:Arial"
         id="tspan3703" /><tspan
         sodipodi:role="line"
         x="165.85364"
         y="445.04514"
         style="font-style:normal;font-variant:normal;font-weight:normal;font-stretch:normal;font-size:20px;font-family:Arial;-inkscape-font-specification:Arial"
         id="tspan3705">4</tspan><tspan
         sodipodi:role="line"
         x="165.85364"
         y="470.04514"
         style="font-style:normal;font-variant:normal;font-weight:normal;font-stretch:normal;font-size:20px;font-family:Arial;-inkscape-font-specification:Arial"
         id="tspan3699" /><tspan
         sodipodi:role="line"
         x="165.85364"
         y="495.04514"
         style="font-style:normal;font-variant:normal;font-weight:normal;font-stretch:normal;font-size:20px;font-family:Arial;-inkscape-font-specification:Arial"
         id="tspan3701">3</tspan><tspan
         sodipodi:role="line"
         x="165.85364"
         y="520.04517"
         id="tspan3657"
         style="font-style:normal;font-variant:normal;font-weight:normal;font-stretch:normal;font-size:20px;font-family:Arial;-inkscape-font-specification:Arial" /><tspan
         sodipodi:role="line"
         x="165.85364"
         y="545.04517"
         id="tspan3659"
         style="font-style:normal;font-variant:normal;font-weight:normal;font-stretch:normal;font-size:20px;font-family:Arial;-inkscape-font-specification:Arial">2</tspan><tspan
         sodipodi:role="line"
         x="165.85364"
         y="570.04517"
         style="font-style:normal;font-variant:normal;font-weight:normal;font-stretch:normal;font-size:20px;font-family:Arial;-inkscape-font-specification:Arial"
         id="tspan3687" /><tspan
         sodipodi:role="line"
         x="165.85364"
         y="595.04517"
         id="tspan3663"
         style="font-style:normal;font-variant:normal;font-weight:normal;font-stretch:normal;font-size:20px;font-family:Arial;-inkscape-font-specification:Arial">1</tspan><tspan
         sodipodi:role="line"
         x="165.85364"
         y="620.04517"
         style="font-style:normal;font-variant:normal;font-weight:normal;font-stretch:normal;font-size:20px;font-family:Arial;-inkscape-font-specification:Arial"
         id="tspan3689" /><tspan
         sodipodi:role="line"
         x="165.85364"
         y="646.04462"
         id="tspan3667"
         style="font-size:20px">0</tspan></text>
    <flowRoot
       xml:space="preserve"
       id="flowRoot3669"
       style="font-style:normal;font-variant:normal;font-weight:normal;font-stretch:normal;font-size:20px;line-height:125%;font-family:Arial;-inkscape-font-specification:Arial;letter-spacing:0px;word-spacing:0px;fill:#000000;fill-opacity:1;stroke:none;stroke-width:1px;stroke-linecap:butt;stroke-linejoin:miter;stroke-opacity:1"
       transform="translate(-10.195122,7.3170732)"><flowRegion
         id="flowRegion3671"><rect
           id="rect3673"
           width="390.24393"
           height="45.121922"
           x="212.19513"
           y="618.21588"
           style="font-style:normal;font-variant:normal;font-weight:normal;font-stretch:normal;font-size:20px;line-height:125%;font-family:Arial;-inkscape-font-specification:Arial" /></flowRegion><flowPara
         id="flowPara3675"
         style="font-style:normal;font-variant:normal;font-weight:normal;font-stretch:normal;font-size:20px;line-height:125%;font-family:Arial;-inkscape-font-specification:Arial">  1      2      3      4      5      6      7      8      9</flowPara></flowRoot>    <text
       xml:space="preserve"
       style="font-style:normal;font-weight:normal;font-size:40px;line-height:125%;font-family:sans-serif;letter-spacing:0px;word-spacing:0px;fill:#000000;fill-opacity:1;stroke:none;stroke-width:1px;stroke-linecap:butt;stroke-linejoin:miter;stroke-opacity:1"
       x="262.19513"
       y="659.67926"
       id="text3677"
       sodipodi:linespacing="125%"><tspan
         sodipodi:role="line"
         id="tspan3679"
         x="262.19513"
         y="659.67926" /></text>
    <rect
       style="fill:#000000;stroke:#000000;stroke-width:1.00779653"
       id="rect3715"
       width="2.4390244"
       height="395.11414"
       x="198.78049"
       y="226.76027" />
    <rect
       style="fill:#000000;stroke:#000000"
       id="rect3715-8"
       width="2.4390244"
       height="389.02438"
       x="619.43536"
       y="-587.80487"
       transform="matrix(0,1,-1,0,0,0)" />
    <ellipse
       style="fill:#000000;stroke:#000000"
       id="path3358-4-28-009"
       cx="263.35919"
       cy="536.64709"
       rx="2.4390244"
       ry="3.0487804" />
    <ellipse
       style="fill:#000000;stroke:#000000"
       id="path3358-4-28-89"
       cx="461.47449"
       cy="385.23361"
       rx="2.4390244"
       ry="3.0487804" />
    <ellipse
       style="fill:#000000;stroke:#000000"
       id="path3358-4-28-009-2"
       cx="279.54544"
       cy="567.13495"
       rx="2.4390244"
       ry="3.0487804" />
    <ellipse
       style="fill:#000000;stroke:#000000"
       id="path3358-4-28-009-4"
       cx="255.68182"
       cy="554.63495"
       rx="2.4390244"
       ry="3.0487804" />
    <ellipse
       style="fill:#000000;stroke:#000000"
       id="path3358-4-28-009-0"
       cx="284.09091"
       cy="548.95312"
       rx="2.4390244"
       ry="3.0487804" />
    <ellipse
       style="fill:#000000;stroke:#000000"
       id="path3358-4-28-009-01"
       cx="378.40909"
       cy="433.04401"
       rx="2.4390244"
       ry="3.0487804" />
    <ellipse
       style="fill:#000000;stroke:#000000"
       id="path3358-4-28-009-8"
       cx="446.59091"
       cy="356.90765"
       rx="2.4390244"
       ry="3.0487804" />
    <ellipse
       style="fill:#000000;stroke:#000000"
       id="path3358-4-28-009-3"
       cx="475"
       cy="361.45312"
       rx="2.4390244"
       ry="3.0487804" />
    <ellipse
       style="fill:#000000;stroke:#000000"
       id="path3358-4-28-009-5"
       cx="439.77274"
       cy="373.95312"
       rx="2.4390244"
       ry="3.0487804" />
    <ellipse
       style="fill:#000000;stroke:#000000"
       id="path3358-4-28-009-88"
       cx="282.95456"
       cy="517.13495"
       rx="2.4390244"
       ry="3.0487804" />
    <ellipse
       style="fill:#000000;stroke:#000000"
       id="path3358-4-28-009-9"
       cx="251.13637"
       cy="502.36221"
       rx="2.4390244"
       ry="3.0487804" />
    <ellipse
       style="fill:#000000;stroke:#000000"
       id="path3358-4-28-009-6"
       cx="270.45456"
       cy="484.18039"
       rx="2.4390244"
       ry="3.0487804" />
    <ellipse
       style="fill:#000000;stroke:#000000"
       id="path3358-4-28-009-09"
       cx="310.22726"
       cy="498.95312"
       rx="2.4390244"
       ry="3.0487804" />
    <ellipse
       style="fill:#000000;stroke:#000000"
       id="path3358-4-28-009-40"
       cx="319.31818"
       cy="533.04401"
       rx="2.4390244"
       ry="3.0487804" />
    <ellipse
       style="fill:#000000;stroke:#000000"
       id="path3358-4-28-009-98"
       cx="239.77272"
       cy="526.22583"
       rx="2.4390244"
       ry="3.0487804" />
    <ellipse
       style="fill:#000000;stroke:#000000"
       id="path3358-4-28-009-7"
       cx="276.13635"
       cy="460.31674"
       rx="2.4390244"
       ry="3.0487804" />
    <ellipse
       style="fill:#000000;stroke:#000000"
       id="path3358-4-28-009-28"
       cx="320.45456"
       cy="480.7713"
       rx="2.4390244"
       ry="3.0487804" />
    <ellipse
       style="fill:#000000;stroke:#000000"
       id="path3358-4-28-009-63"
       cx="312.5"
       cy="467.13492"
       rx="2.4390244"
       ry="3.0487804" />
    <ellipse
       style="fill:#000000;stroke:#000000"
       id="path3358-4-28-009-71"
       cx="336.36365"
       cy="489.86221"
       rx="2.4390244"
       ry="3.0487804" />
    <ellipse
       style="fill:#000000;stroke:#000000"
       id="path3358-4-28-009-38"
       cx="346.59091"
       cy="506.90765"
       rx="2.4390244"
       ry="3.0487804" />
    <ellipse
       style="fill:#000000;stroke:#000000"
       id="path3358-4-28-009-1"
       cx="343.18182"
       cy="470.54404"
       rx="2.4390244"
       ry="3.0487804" />
    <ellipse
       style="fill:#000000;stroke:#000000"
       id="path3358-4-28-009-24"
       cx="342.04547"
       cy="450.08948"
       rx="2.4390244"
       ry="3.0487804" />
    <ellipse
       style="fill:#000000;stroke:#000000"
       id="path3358-4-28-009-85"
       cx="402.27274"
       cy="404.63492"
       rx="2.4390244"
       ry="3.0487804" />
    <ellipse
       style="fill:#000000;stroke:#000000"
       id="path3358-4-28-009-04"
       cx="443.18182"
       cy="398.95312"
       rx="2.4390244"
       ry="3.0487804" />
    <ellipse
       style="fill:#000000;stroke:#000000"
       id="path3358-4-28-009-25"
       cx="452.27274"
       cy="328.49857"
       rx="2.4390244"
       ry="3.0487804" />
    <ellipse
       style="fill:#000000;stroke:#000000"
       id="path3358-4-28-009-36"
       cx="404.54547"
       cy="384.18039"
       rx="2.4390244"
       ry="3.0487804" />
    <ellipse
       style="fill:#000000;stroke:#000000"
       id="path3358-4-28-009-57"
       cx="422.72726"
       cy="384.18039"
       rx="2.4390244"
       ry="3.0487804" />
    <ellipse
       style="fill:#000000;stroke:#000000"
       id="path3358-4-28-009-716"
       cx="467.04544"
       cy="412.58948"
       rx="2.4390244"
       ry="3.0487804" />
    <ellipse
       style="fill:#000000;stroke:#000000"
       id="path3358-4-28-009-39"
       cx="495.45456"
       cy="377.36221"
       rx="2.4390244"
       ry="3.0487804" />
    <ellipse
       style="fill:#000000;stroke:#000000"
       id="path3358-4-28-009-45"
       cx="481.81818"
       cy="340.99857"
       rx="2.4390244"
       ry="3.0487804" />
    <ellipse
       style="fill:#000000;stroke:#000000"
       id="path3358-4-28-009-66"
       cx="419.31818"
       cy="408.04401"
       rx="2.4390244"
       ry="3.0487804" />
    <ellipse
       style="fill:#000000;stroke:#000000"
       id="path3358-4-28-009-84"
       cx="494.31818"
       cy="311.45309"
       rx="2.4390244"
       ry="3.0487804" />
    <ellipse
       style="fill:#000000;stroke:#000000"
       id="path3358-4-28-009-885"
       cx="512.5"
       cy="321.68039"
       rx="2.4390244"
       ry="3.0487804" />
    <ellipse
       style="fill:#000000;stroke:#000000"
       id="path3358-4-28-009-717"
       cx="538.63635"
       cy="359.18039"
       rx="2.4390244"
       ry="3.0487804" />
    <ellipse
       style="fill:#000000;stroke:#000000"
       id="path3358-4-28-009-712"
       cx="540.90912"
       cy="329.63492"
       rx="2.4390244"
       ry="3.0487804" />
    <ellipse
       style="fill:#000000;stroke:#000000"
       id="path3358-4-28-009-285"
       cx="513.63635"
       cy="355.7713"
       rx="2.4390244"
       ry="3.0487804" />
  </g>
</svg>
