<?xml version="1.0" encoding="UTF-8" standalone="no"?>
<!-- Created with Inkscape (http://www.inkscape.org/) -->

<svg
   xmlns:dc="http://purl.org/dc/elements/1.1/"
   xmlns:cc="http://creativecommons.org/ns#"
   xmlns:rdf="http://www.w3.org/1999/02/22-rdf-syntax-ns#"
   xmlns:svg="http://www.w3.org/2000/svg"
   xmlns="http://www.w3.org/2000/svg"
   xmlns:sodipodi="http://sodipodi.sourceforge.net/DTD/sodipodi-0.dtd"
   xmlns:inkscape="http://www.inkscape.org/namespaces/inkscape"
   width="210mm"
   height="297mm"
   viewBox="0 0 744.09448819 1052.3622047"
   id="svg3346"
   version="1.1"
   inkscape:version="0.91 r13725"
   sodipodi:docname="hierarchical_clustering_nadol_hotovy.svg">
  <defs
     id="defs3348" />
  <sodipodi:namedview
     id="base"
     pagecolor="#ffffff"
     bordercolor="#666666"
     borderopacity="1.0"
     inkscape:pageopacity="0.0"
     inkscape:pageshadow="2"
     inkscape:zoom="0.82"
     inkscape:cx="185.36585"
     inkscape:cy="666.34146"
     inkscape:document-units="px"
     inkscape:current-layer="layer1"
     showgrid="false"
     inkscape:object-nodes="true"
     inkscape:window-width="1920"
     inkscape:window-height="1028"
     inkscape:window-x="-8"
     inkscape:window-y="-8"
     inkscape:window-maximized="1" />
  <metadata
     id="metadata3351">
    <rdf:RDF>
      <cc:Work
         rdf:about="">
        <dc:format>image/svg+xml</dc:format>
        <dc:type
           rdf:resource="http://purl.org/dc/dcmitype/StillImage" />
        <dc:title></dc:title>
      </cc:Work>
    </rdf:RDF>
  </metadata>
  <g
     inkscape:label="Vrstva 1"
     inkscape:groupmode="layer"
     id="layer1">
    <ellipse
       style="display:inline;opacity:1;fill:#c8ab37;fill-opacity:0.48235294;stroke:#d4aa00;stroke-width:1.59799159"
       id="path3865-5-8"
       cx="428.65848"
       cy="410.28906"
       rx="172.87172"
       ry="160.06683" />
    <ellipse
       style="display:inline;opacity:1;fill:#aa8800;fill-opacity:0.48235294;stroke:#d4aa00;stroke-width:0.79736674"
       id="path3865-5-8-1-5"
       cx="512.19513"
       cy="387.72806"
       rx="61.686657"
       ry="111.68666" />
    <ellipse
       style="display:inline;opacity:1;fill:#ffcc00;fill-opacity:0.48235294;stroke:#d4aa00;stroke-width:0.31654102"
       id="path3865-5-8-1-8-7"
       cx="519.51221"
       cy="316.99634"
       rx="33.878288"
       ry="32.049034" />
    <ellipse
       style="display:inline;opacity:1;fill:#ffcc00;fill-opacity:0.48235294;stroke:#d4aa00;stroke-width:0.37419522"
       id="path3865-5-8-1-8-4"
       cx="512.19513"
       cy="440.77682"
       rx="33.849461"
       ry="44.825085" />
    <ellipse
       style="display:inline;opacity:1;fill:#aa8800;fill-opacity:0.48235294;stroke:#d4aa00;stroke-width:0.85780966"
       id="path3865-5-8-1"
       cx="351.82928"
       cy="432.85007"
       rx="71.412529"
       ry="111.65645" />
    <ellipse
       style="display:inline;opacity:1;fill:#ffcc00;fill-opacity:0.48235294;stroke:#d4aa00;stroke-width:0.30971849"
       id="path3865-5-8-1-8-0"
       cx="353.04877"
       cy="512.72809"
       rx="29.613405"
       ry="35.101227" />
    <ellipse
       style="display:inline;opacity:1;fill:#ffcc00;fill-opacity:0.48235294;stroke:#d4aa00;stroke-width:0.36130795"
       id="path3865-5-8-1-8"
       cx="340.2439"
       cy="368.82568"
       rx="33.855904"
       ry="41.782749" />
    <flowRoot
       xml:space="preserve"
       id="flowRoot3633"
       style="font-style:normal;font-weight:normal;font-size:40px;line-height:125%;font-family:sans-serif;letter-spacing:0px;word-spacing:0px;fill:#000000;fill-opacity:1;stroke:none;stroke-width:1px;stroke-linecap:butt;stroke-linejoin:miter;stroke-opacity:1"><flowRegion
         id="flowRegion3635"><rect
           id="rect3637"
           width="24.390244"
           height="375.60974"
           x="171.95122"
           y="254.80122" /></flowRegion><flowPara
         id="flowPara3639">2020ghhh</flowPara><flowPara
         id="flowPara3641" /></flowRoot>    <text
       xml:space="preserve"
       style="font-style:normal;font-weight:normal;font-size:40px;line-height:125%;font-family:sans-serif;letter-spacing:0px;word-spacing:0px;fill:#000000;fill-opacity:1;stroke:none;stroke-width:1px;stroke-linecap:butt;stroke-linejoin:miter;stroke-opacity:1"
       x="178.04878"
       y="282.85001"
       id="text3643"
       sodipodi:linespacing="125%"><tspan
         sodipodi:role="line"
         id="tspan3645"
         x="178.04878"
         y="282.85001" /><tspan
         sodipodi:role="line"
         x="178.04878"
         y="332.85001"
         id="tspan3647" /><tspan
         sodipodi:role="line"
         x="178.04878"
         y="382.85001"
         id="tspan3649" /></text>
    <text
       xml:space="preserve"
       style="font-style:normal;font-weight:normal;font-size:40px;line-height:125%;font-family:sans-serif;letter-spacing:0px;word-spacing:0px;fill:#000000;fill-opacity:1;stroke:none;stroke-width:1px;stroke-linecap:butt;stroke-linejoin:miter;stroke-opacity:1"
       x="165.85364"
       y="245.04514"
       id="text3651"
       sodipodi:linespacing="125%"><tspan
         sodipodi:role="line"
         x="165.85364"
         y="245.04514"
         id="tspan3655"
         style="font-style:normal;font-variant:normal;font-weight:normal;font-stretch:normal;font-size:20px;font-family:Arial;-inkscape-font-specification:Arial">80</tspan><tspan
         sodipodi:role="line"
         x="165.85364"
         y="270.04514"
         style="font-style:normal;font-variant:normal;font-weight:normal;font-stretch:normal;font-size:20px;font-family:Arial;-inkscape-font-specification:Arial"
         id="tspan3711" /><tspan
         sodipodi:role="line"
         x="165.85364"
         y="295.04514"
         style="font-style:normal;font-variant:normal;font-weight:normal;font-stretch:normal;font-size:20px;font-family:Arial;-inkscape-font-specification:Arial"
         id="tspan3713">70</tspan><tspan
         sodipodi:role="line"
         x="165.85364"
         y="320.04514"
         style="font-style:normal;font-variant:normal;font-weight:normal;font-stretch:normal;font-size:20px;font-family:Arial;-inkscape-font-specification:Arial"
         id="tspan3707" /><tspan
         sodipodi:role="line"
         x="165.85364"
         y="345.04514"
         style="font-style:normal;font-variant:normal;font-weight:normal;font-stretch:normal;font-size:20px;font-family:Arial;-inkscape-font-specification:Arial"
         id="tspan3709">60</tspan><tspan
         sodipodi:role="line"
         x="165.85364"
         y="370.04514"
         style="font-style:normal;font-variant:normal;font-weight:normal;font-stretch:normal;font-size:20px;font-family:Arial;-inkscape-font-specification:Arial"
         id="tspan3683" /><tspan
         sodipodi:role="line"
         x="165.85364"
         y="395.04514"
         style="font-style:normal;font-variant:normal;font-weight:normal;font-stretch:normal;font-size:20px;font-family:Arial;-inkscape-font-specification:Arial"
         id="tspan3685">50</tspan><tspan
         sodipodi:role="line"
         x="165.85364"
         y="420.04514"
         style="font-style:normal;font-variant:normal;font-weight:normal;font-stretch:normal;font-size:20px;font-family:Arial;-inkscape-font-specification:Arial"
         id="tspan3703" /><tspan
         sodipodi:role="line"
         x="165.85364"
         y="445.04514"
         style="font-style:normal;font-variant:normal;font-weight:normal;font-stretch:normal;font-size:20px;font-family:Arial;-inkscape-font-specification:Arial"
         id="tspan3705">40</tspan><tspan
         sodipodi:role="line"
         x="165.85364"
         y="470.04514"
         style="font-style:normal;font-variant:normal;font-weight:normal;font-stretch:normal;font-size:20px;font-family:Arial;-inkscape-font-specification:Arial"
         id="tspan3699" /><tspan
         sodipodi:role="line"
         x="165.85364"
         y="495.04514"
         style="font-style:normal;font-variant:normal;font-weight:normal;font-stretch:normal;font-size:20px;font-family:Arial;-inkscape-font-specification:Arial"
         id="tspan3701">30</tspan><tspan
         sodipodi:role="line"
         x="165.85364"
         y="520.04517"
         id="tspan3657"
         style="font-style:normal;font-variant:normal;font-weight:normal;font-stretch:normal;font-size:20px;font-family:Arial;-inkscape-font-specification:Arial" /><tspan
         sodipodi:role="line"
         x="165.85364"
         y="545.04517"
         id="tspan3659"
         style="font-style:normal;font-variant:normal;font-weight:normal;font-stretch:normal;font-size:20px;font-family:Arial;-inkscape-font-specification:Arial">20</tspan><tspan
         sodipodi:role="line"
         x="165.85364"
         y="570.04517"
         style="font-style:normal;font-variant:normal;font-weight:normal;font-stretch:normal;font-size:20px;font-family:Arial;-inkscape-font-specification:Arial"
         id="tspan3687" /><tspan
         sodipodi:role="line"
         x="165.85364"
         y="595.04517"
         id="tspan3663"
         style="font-style:normal;font-variant:normal;font-weight:normal;font-stretch:normal;font-size:20px;font-family:Arial;-inkscape-font-specification:Arial">10</tspan><tspan
         sodipodi:role="line"
         x="165.85364"
         y="620.04517"
         style="font-style:normal;font-variant:normal;font-weight:normal;font-stretch:normal;font-size:20px;font-family:Arial;-inkscape-font-specification:Arial"
         id="tspan3689" /><tspan
         sodipodi:role="line"
         x="165.85364"
         y="646.04462"
         id="tspan3667"
         style="font-size:20px"> 0</tspan></text>
    <flowRoot
       xml:space="preserve"
       id="flowRoot3669"
       style="font-style:normal;font-variant:normal;font-weight:normal;font-stretch:normal;font-size:20px;line-height:125%;font-family:Arial;-inkscape-font-specification:Arial;letter-spacing:0px;word-spacing:0px;fill:#000000;fill-opacity:1;stroke:none;stroke-width:1px;stroke-linecap:butt;stroke-linejoin:miter;stroke-opacity:1"
       transform="translate(-10.195122,7.3170732)"><flowRegion
         id="flowRegion3671"><rect
           id="rect3673"
           width="390.24393"
           height="45.121922"
           x="212.19513"
           y="618.21588"
           style="font-style:normal;font-variant:normal;font-weight:normal;font-stretch:normal;font-size:20px;line-height:125%;font-family:Arial;-inkscape-font-specification:Arial" /></flowRegion><flowPara
         id="flowPara3675"
         style="font-style:normal;font-variant:normal;font-weight:normal;font-stretch:normal;font-size:20px;line-height:125%;font-family:Arial;-inkscape-font-specification:Arial">  10    20    30    40    50    60    70    80    90</flowPara></flowRoot>    <text
       xml:space="preserve"
       style="font-style:normal;font-weight:normal;font-size:40px;line-height:125%;font-family:sans-serif;letter-spacing:0px;word-spacing:0px;fill:#000000;fill-opacity:1;stroke:none;stroke-width:1px;stroke-linecap:butt;stroke-linejoin:miter;stroke-opacity:1"
       x="262.19513"
       y="659.67926"
       id="text3677"
       sodipodi:linespacing="125%"><tspan
         sodipodi:role="line"
         id="tspan3679"
         x="262.19513"
         y="659.67926" /></text>
    <rect
       style="fill:#000000;stroke:#000000;stroke-width:1.00779653"
       id="rect3715"
       width="2.4390244"
       height="395.11414"
       x="198.78049"
       y="226.76027" />
    <rect
       style="fill:#000000;stroke:#000000"
       id="rect3715-8"
       width="2.4390244"
       height="389.02438"
       x="619.43536"
       y="-587.80487"
       transform="matrix(0,1,-1,0,0,0)" />
    <ellipse
       style="display:inline;opacity:1;fill:#ffdd55;fill-opacity:0.48235294;stroke:#d4aa00;stroke-width:0.14865889"
       id="path3865-5-8-1-8-9-1"
       cx="509.7561"
       cy="471.26465"
       rx="19.93784"
       ry="12.011025" />
    <ellipse
       style="display:inline;opacity:1;fill:#ccff00;fill-opacity:0.48235294;stroke:#d4aa00;stroke-width:0.08887772"
       id="path3865-5-8-1-8-9-491-8"
       cx="501.21951"
       cy="468.21585"
       rx="8.3823633"
       ry="10.211648" />
    <ellipse
       style="fill:#000000;stroke:#000000"
       id="path3358-4-42"
       cx="502.43903"
       cy="469.43536"
       rx="2.4390244"
       ry="3.0487804" />
    <ellipse
       style="display:inline;opacity:1;fill:#ccff00;fill-opacity:0.48235294;stroke:#d4aa00;stroke-width:0.08887772"
       id="path3865-5-8-1-8-9-491"
       cx="522.56091"
       cy="474.31348"
       rx="8.3823633"
       ry="10.211648" />
    <ellipse
       style="fill:#000000;stroke:#000000"
       id="path3358-4-1"
       cx="524.3902"
       cy="474.31342"
       rx="2.4390244"
       ry="3.0487804" />
    <ellipse
       style="display:inline;opacity:1;fill:#ffdd55;fill-opacity:0.48235294;stroke:#d4aa00;stroke-width:0.15859239"
       id="path3865-5-8-1-8-9-4"
       cx="513.41461"
       cy="415.16711"
       rx="15.054823"
       ry="18.103621" />
    <ellipse
       style="display:inline;opacity:1;fill:#ccff00;fill-opacity:0.48235294;stroke:#d4aa00;stroke-width:0.08887772"
       id="path3865-5-8-1-8-9-491-9"
       cx="507.31708"
       cy="425.53293"
       rx="8.3823633"
       ry="10.211648" />
    <ellipse
       style="fill:#000000;stroke:#000000"
       id="path3358-4-6"
       cx="506.09756"
       cy="424.31345"
       rx="2.4390244"
       ry="3.0487804" />
    <ellipse
       style="display:inline;opacity:1;fill:#ccff00;fill-opacity:0.48235294;stroke:#d4aa00;stroke-width:0.08887772"
       id="path3865-5-8-1-8-9-491-6"
       cx="521.95123"
       cy="407.24026"
       rx="8.3823633"
       ry="10.211648" />
    <ellipse
       style="fill:#000000;stroke:#000000"
       id="path3358-4-7"
       cx="523.17072"
       cy="408.45978"
       rx="2.4390244"
       ry="3.0487804" />
    <ellipse
       style="display:inline;opacity:1;fill:#ffdd55;fill-opacity:0.48235294;stroke:#d4aa00;stroke-width:0.16895702"
       id="path3865-5-8-1-8-9-3"
       cx="526.82928"
       cy="301.1427"
       rx="22.366714"
       ry="13.830145" />
    <ellipse
       style="display:inline;opacity:1;fill:#ccff00;fill-opacity:0.48235294;stroke:#d4aa00;stroke-width:0.08887772"
       id="path3865-5-8-1-8-9-491-5"
       cx="539.02441"
       cy="299.92319"
       rx="8.3823633"
       ry="10.211648" />
    <ellipse
       style="fill:#000000;stroke:#000000"
       id="path3358-4-44"
       cx="539.02441"
       cy="302.36221"
       rx="2.4390244"
       ry="3.0487804" />
    <ellipse
       style="display:inline;opacity:1;fill:#ccff00;fill-opacity:0.48235294;stroke:#d4aa00;stroke-width:0.08887772"
       id="path3865-5-8-1-8-9-491-97"
       cx="521.95123"
       cy="301.1427"
       rx="8.3823633"
       ry="10.211648" />
    <ellipse
       style="fill:#000000;stroke:#000000"
       id="path3358-4-23"
       cx="520.73169"
       cy="301.1427"
       rx="2.4390244"
       ry="3.0487804" />
    <ellipse
       style="display:inline;opacity:1;fill:#ffdd55;fill-opacity:0.48235294;stroke:#d4aa00;stroke-width:0.14485529"
       id="path3865-5-8-1-8-9"
       cx="511.58536"
       cy="326.75241"
       rx="19.939741"
       ry="11.403172" />
    <ellipse
       style="display:inline;opacity:1;fill:#ccff00;fill-opacity:0.48235294;stroke:#d4aa00;stroke-width:0.08887772"
       id="path3865-5-8-1-8-9-491-2"
       cx="502.43903"
       cy="324.31342"
       rx="8.3823633"
       ry="10.211648" />
    <ellipse
       style="fill:#000000;stroke:#000000"
       id="path3358-4-26"
       cx="502.43903"
       cy="323.09393"
       rx="2.4390244"
       ry="3.0487804" />
    <ellipse
       style="display:inline;opacity:1;fill:#ccff00;fill-opacity:0.48235294;stroke:#d4aa00;stroke-width:0.08887772"
       id="path3865-5-8-1-8-9-491-0"
       cx="520.73169"
       cy="329.19147"
       rx="8.3823633"
       ry="10.211648" />
    <ellipse
       style="fill:#000000;stroke:#000000"
       id="path3358-4-65"
       cx="521.95123"
       cy="330.41101"
       rx="2.4390244"
       ry="3.0487804" />
    <ellipse
       style="display:inline;opacity:1;fill:#ffdd55;fill-opacity:0.48235294;stroke:#d4aa00;stroke-width:0.16895702"
       id="path3865-5-8-1-8-9-7"
       cx="341.46338"
       cy="393.82562"
       rx="22.366714"
       ry="13.830145" />
    <ellipse
       style="display:inline;opacity:1;fill:#ccff00;fill-opacity:0.48235294;stroke:#d4aa00;stroke-width:0.08887772"
       id="path3865-5-8-1-8-9-491-56"
       cx="354.87805"
       cy="395.04514"
       rx="8.3823633"
       ry="10.211648" />
    <ellipse
       style="fill:#000000;stroke:#000000"
       id="path3358-4-19"
       cx="353.65854"
       cy="395.04514"
       rx="2.4390244"
       ry="3.0487804" />
    <ellipse
       style="display:inline;opacity:1;fill:#ccff00;fill-opacity:0.48235294;stroke:#d4aa00;stroke-width:0.08887772"
       id="path3865-5-8-1-8-9-491-95"
       cx="326.82925"
       cy="397.48416"
       rx="8.3823633"
       ry="10.211648" />
    <ellipse
       style="fill:#000000;stroke:#000000"
       id="path3358-4-426"
       cx="326.82925"
       cy="397.48416"
       rx="2.4390244"
       ry="3.0487804" />
    <ellipse
       style="display:inline;opacity:1;fill:#ffdd55;fill-opacity:0.48235294;stroke:#d4aa00;stroke-width:0.13436137"
       id="path3865-5-8-1-8-9-49"
       cx="344.51221"
       cy="350.5329"
       rx="10.798646"
       ry="18.115734" />
    <ellipse
       style="display:inline;opacity:1;fill:#ccff00;fill-opacity:0.48235294;stroke:#d4aa00;stroke-width:0.08887772"
       id="path3865-5-8-1-8-9-491-96"
       cx="347.56097"
       cy="364.55731"
       rx="8.3823633"
       ry="10.211648" />
    <ellipse
       style="fill:#000000;stroke:#000000"
       id="path3358-4-650"
       cx="347.56097"
       cy="362.11829"
       rx="2.4390244"
       ry="3.0487804" />
    <ellipse
       style="display:inline;opacity:1;fill:#ccff00;fill-opacity:0.48235294;stroke:#d4aa00;stroke-width:0.08887772"
       id="path3865-5-8-1-8-9-491-91"
       cx="343.90244"
       cy="343.82562"
       rx="8.3823633"
       ry="10.211648" />
    <ellipse
       style="fill:#000000;stroke:#000000"
       id="path3358-4-28"
       cx="342.68292"
       cy="343.82562"
       rx="2.4390244"
       ry="3.0487804" />
    <ellipse
       style="display:inline;opacity:1;fill:#ffdd55;fill-opacity:0.48235294;stroke:#d4aa00;stroke-width:0.12598738"
       id="path3865-5-8-1-8-9-2"
       cx="341.46341"
       cy="532.85004"
       rx="15.071126"
       ry="11.412605" />
    <ellipse
       style="display:inline;opacity:1;fill:#ccff00;fill-opacity:0.48235294;stroke:#d4aa00;stroke-width:0.08887772"
       id="path3865-5-8-1-8-9-491-25"
       cx="334.14633"
       cy="532.85004"
       rx="8.3823633"
       ry="10.211648" />
    <ellipse
       style="fill:#000000;stroke:#000000"
       id="path3358-4-27"
       cx="335.36588"
       cy="532.85004"
       rx="2.4390244"
       ry="3.0487804" />
    <ellipse
       style="display:inline;opacity:1;fill:#ccff00;fill-opacity:0.48235294;stroke:#d4aa00;stroke-width:0.08887772"
       id="path3865-5-8-1-8-9-491-51"
       cx="348.78049"
       cy="538.94757"
       rx="8.3823633"
       ry="10.211648" />
    <ellipse
       style="fill:#000000;stroke:#000000"
       id="path3358-4-57"
       cx="348.78049"
       cy="537.72809"
       rx="2.4390244"
       ry="3.0487804" />
    <ellipse
       style="display:inline;opacity:1;fill:#ffdd55;fill-opacity:0.48235294;stroke:#d4aa00;stroke-width:0.15634903"
       id="path3865-5-8-1-8-9-5"
       cx="353.65854"
       cy="499.92319"
       rx="16.275457"
       ry="16.275475" />
    <ellipse
       style="display:inline;opacity:1;fill:#ccff00;fill-opacity:0.48235294;stroke:#d4aa00;stroke-width:0.08887772"
       id="path3865-5-8-1-8-9-491-4"
       cx="346.34146"
       cy="507.24026"
       rx="8.3823633"
       ry="10.211648" />
    <ellipse
       style="fill:#000000;stroke:#000000"
       id="path3358-4-31"
       cx="345.12198"
       cy="508.45975"
       rx="2.4390244"
       ry="3.0487804" />
    <ellipse
       style="display:inline;opacity:1;fill:#ccff00;fill-opacity:0.48235294;stroke:#d4aa00;stroke-width:0.08887772"
       id="path3865-5-8-1-8-9-491-63"
       cx="364.63416"
       cy="497.48416"
       rx="8.3823633"
       ry="10.211648" />
    <ellipse
       style="fill:#000000;stroke:#000000"
       id="path3358-4-61"
       cx="364.63416"
       cy="497.48413"
       rx="2.4390244"
       ry="3.0487804" />
  </g>
</svg>
