<?xml version="1.0" encoding="UTF-8" standalone="no"?>
<!-- Created with Inkscape (http://www.inkscape.org/) -->

<svg
   xmlns:dc="http://purl.org/dc/elements/1.1/"
   xmlns:cc="http://creativecommons.org/ns#"
   xmlns:rdf="http://www.w3.org/1999/02/22-rdf-syntax-ns#"
   xmlns:svg="http://www.w3.org/2000/svg"
   xmlns="http://www.w3.org/2000/svg"
   xmlns:sodipodi="http://sodipodi.sourceforge.net/DTD/sodipodi-0.dtd"
   xmlns:inkscape="http://www.inkscape.org/namespaces/inkscape"
   width="210mm"
   height="297mm"
   viewBox="0 0 744.09448819 1052.3622047"
   id="svg3346"
   version="1.1"
   inkscape:version="0.91 r13725"
   sodipodi:docname="k-means_hotovy.svg">
  <defs
     id="defs3348" />
  <sodipodi:namedview
     id="base"
     pagecolor="#ffffff"
     bordercolor="#666666"
     borderopacity="1.0"
     inkscape:pageopacity="0.0"
     inkscape:pageshadow="2"
     inkscape:zoom="0.82"
     inkscape:cx="375"
     inkscape:cy="570.77136"
     inkscape:document-units="px"
     inkscape:current-layer="layer1"
     showgrid="false"
     inkscape:object-nodes="true"
     inkscape:window-width="1140"
     inkscape:window-height="961"
     inkscape:window-x="9"
     inkscape:window-y="4"
     inkscape:window-maximized="0" />
  <metadata
     id="metadata3351">
    <rdf:RDF>
      <cc:Work
         rdf:about="">
        <dc:format>image/svg+xml</dc:format>
        <dc:type
           rdf:resource="http://purl.org/dc/dcmitype/StillImage" />
        <dc:title></dc:title>
      </cc:Work>
    </rdf:RDF>
  </metadata>
  <g
     inkscape:groupmode="layer"
     id="layer2"
     inkscape:label="Vrstva 2" />
  <g
     inkscape:label="Vrstva 1"
     inkscape:groupmode="layer"
     id="layer1"
     style="display:inline">
    <ellipse
       style="opacity:1;fill:#00c900;fill-opacity:0.48235294;stroke:#d4aa00;stroke-width:0.84022808"
       id="path3865"
       cx="145.12192"
       cy="118.82561"
       rx="76.909149"
       ry="99.470123" />
    <ellipse
       style="fill:#000000;stroke:#000000"
       id="path3358"
       cx="132.92682"
       cy="52.971958"
       rx="2.4390244"
       ry="3.0487804" />
    <ellipse
       style="fill:#000000;stroke:#000000"
       id="path3358-4"
       cx="84.146347"
       cy="84.069519"
       rx="2.4390244"
       ry="3.0487804" />
    <ellipse
       style="fill:#000000;stroke:#000000"
       id="path3358-3"
       cx="123.17075"
       cy="82.849976"
       rx="2.4390244"
       ry="3.0487804" />
    <ellipse
       style="fill:#000000;stroke:#000000"
       id="path3358-0"
       cx="102.43901"
       cy="45.045124"
       rx="2.4390244"
       ry="3.0487804" />
    <ellipse
       style="fill:#000000;stroke:#000000"
       id="path3358-2"
       cx="108.53659"
       cy="68.215851"
       rx="2.4390244"
       ry="3.0487804" />
    <ellipse
       style="fill:#000000;stroke:#000000"
       id="path3358-24"
       cx="100"
       cy="107.24023"
       rx="2.4390244"
       ry="3.0487804" />
    <ellipse
       style="fill:#000000;stroke:#000000"
       id="path3358-20"
       cx="121.95123"
       cy="109.67926"
       rx="2.4390244"
       ry="3.0487804" />
    <ellipse
       style="fill:#000000;stroke:#000000"
       id="path3358-8"
       cx="125.60974"
       cy="132.84998"
       rx="2.4390244"
       ry="3.0487804" />
    <ellipse
       style="fill:#000000;stroke:#000000"
       id="path3358-38"
       cx="132.92682"
       cy="165.77682"
       rx="2.4390244"
       ry="3.0487804" />
    <ellipse
       style="fill:#000000;stroke:#000000"
       id="path3358-48"
       cx="115.85367"
       cy="191.3866"
       rx="2.4390244"
       ry="3.0487804" />
    <ellipse
       style="fill:#000000;stroke:#000000"
       id="path3358-03"
       cx="121.95123"
       cy="209.67929"
       rx="2.4390244"
       ry="3.0487804" />
    <ellipse
       style="display:inline;opacity:1;fill:#c83737;fill-opacity:0.48235294;stroke:#d4aa00;stroke-width:0.60224801"
       id="path3865-6"
       cx="116.4634"
       cy="328.58173"
       rx="61.784241"
       ry="63.613506" />
    <ellipse
       style="fill:#000000;stroke:#000000"
       id="path3358-27"
       cx="121.95123"
       cy="270.65491"
       rx="2.4390244"
       ry="3.0487804" />
    <ellipse
       style="fill:#000000;stroke:#000000"
       id="path3358-5"
       cx="115.85364"
       cy="304.80124"
       rx="2.4390244"
       ry="3.0487804" />
    <ellipse
       style="fill:#000000;stroke:#000000"
       id="path3358-22"
       cx="101.21953"
       cy="323.0939"
       rx="2.4390244"
       ry="3.0487804" />
    <ellipse
       style="fill:#000000;stroke:#000000"
       id="path3358-43"
       cx="86.585358"
       cy="325.53293"
       rx="2.4390244"
       ry="3.0487804" />
    <ellipse
       style="fill:#000000;stroke:#000000"
       id="path3358-41"
       cx="96.341461"
       cy="349.92319"
       rx="2.4390244"
       ry="3.0487804" />
    <ellipse
       style="fill:#000000;stroke:#000000"
       id="path3358-1"
       cx="82.926834"
       cy="343.82559"
       rx="2.4390244"
       ry="3.0487804" />
    <ellipse
       style="fill:#000000;stroke:#000000"
       id="path3358-81"
       cx="156.09756"
       cy="292.60614"
       rx="2.4390244"
       ry="3.0487804" />
    <ellipse
       style="fill:#000000;stroke:#000000"
       id="path3358-6"
       cx="96.341461"
       cy="384.06955"
       rx="2.4390244"
       ry="3.0487804" />
    <ellipse
       style="fill:#000000;stroke:#000000"
       id="path3358-30"
       cx="130.48779"
       cy="364.55734"
       rx="2.4390244"
       ry="3.0487804" />
    <ellipse
       style="fill:#000000;stroke:#000000"
       id="path3358-9"
       cx="140.2439"
       cy="336.50851"
       rx="2.4390244"
       ry="3.0487804" />
    <ellipse
       style="fill:#000000;stroke:#000000"
       id="path3358-46"
       cx="123.17072"
       cy="342.60611"
       rx="2.4390244"
       ry="3.0487804" />
    <ellipse
       style="display:inline;opacity:1;fill:#ffff53;fill-opacity:0.48235294;stroke:#d4aa00;stroke-width:0.712349"
       id="path3865-5-8"
       cx="328.65857"
       cy="317.60611"
       rx="77.58284"
       ry="70.875526" />
    <ellipse
       style="fill:#000000;stroke:#000000"
       id="path3358-7"
       cx="354.87805"
       cy="379.1915"
       rx="2.4390244"
       ry="3.0487804" />
    <ellipse
       style="display:inline;opacity:1;fill:#0000ff;fill-opacity:0.48235294;stroke:#d4aa00;stroke-width:0.84654403"
       id="path3865-5"
       cx="350.00006"
       cy="114.55732"
       rx="91.540131"
       ry="84.832817" />
    <ellipse
       style="fill:#000000;stroke:#000000"
       id="path3358-415"
       cx="362.19513"
       cy="68.215851"
       rx="2.4390244"
       ry="3.0487804" />
    <ellipse
       style="fill:#000000;stroke:#000000"
       id="path3358-50"
       cx="402.43903"
       cy="54.801243"
       rx="2.4390244"
       ry="3.0487804" />
    <ellipse
       style="fill:#000000;stroke:#000000"
       id="path3358-35"
       cx="364.63416"
       cy="104.80124"
       rx="2.4390244"
       ry="3.0487804" />
    <ellipse
       style="fill:#000000;stroke:#000000"
       id="path3358-89"
       cx="345.12195"
       cy="82.850006"
       rx="2.4390244"
       ry="3.0487804" />
    <ellipse
       style="fill:#000000;stroke:#000000"
       id="path3358-815"
       cx="345.12195"
       cy="108.45978"
       rx="2.4390244"
       ry="3.0487804" />
    <ellipse
       style="fill:#000000;stroke:#000000"
       id="path3358-52"
       cx="376.82928"
       cy="363.3378"
       rx="2.4390244"
       ry="3.0487804" />
    <ellipse
       style="fill:#000000;stroke:#000000"
       id="path3358-69"
       cx="384.1463"
       cy="293.82562"
       rx="2.4390244"
       ry="3.0487804" />
    <ellipse
       style="fill:#000000;stroke:#000000"
       id="path3358-85"
       cx="380.48779"
       cy="327.97195"
       rx="2.4390244"
       ry="3.0487804" />
    <ellipse
       style="fill:#000000;stroke:#000000"
       id="path3358-67"
       cx="352.43903"
       cy="342.60611"
       rx="2.4390244"
       ry="3.0487804" />
    <ellipse
       style="fill:#000000;stroke:#000000"
       id="path3358-678"
       cx="321.95123"
       cy="349.92319"
       rx="2.4390244"
       ry="3.0487804" />
    <ellipse
       style="fill:#000000;stroke:#000000"
       id="path3358-896"
       cx="331.70731"
       cy="375.53293"
       rx="2.4390244"
       ry="3.0487804" />
    <ellipse
       style="fill:#000000;stroke:#000000"
       id="path3358-91"
       cx="362.19513"
       cy="302.36221"
       rx="2.4390244"
       ry="3.0487804" />
    <ellipse
       style="fill:#000000;stroke:#000000"
       id="path3358-93"
       cx="381.70734"
       cy="188.94757"
       rx="2.4390244"
       ry="3.0487804" />
    <ellipse
       style="fill:#000000;stroke:#000000"
       id="path3358-47"
       cx="350"
       cy="256.02075"
       rx="2.4390244"
       ry="3.0487804" />
    <ellipse
       style="fill:#000000;stroke:#000000"
       id="path3358-80"
       cx="258.53656"
       cy="332.85001"
       rx="2.4390244"
       ry="3.0487804" />
    <ellipse
       style="fill:#000000;stroke:#000000"
       id="path3358-500"
       cx="208.53659"
       cy="69.435394"
       rx="2.4390244"
       ry="3.0487804" />
    <ellipse
       style="fill:#000000;stroke:#000000"
       id="path3358-14"
       cx="270.73172"
       cy="82.850006"
       rx="2.4390244"
       ry="3.0487804" />
    <ellipse
       style="fill:#000000;stroke:#000000"
       id="path3358-62"
       cx="374.39026"
       cy="58.459751"
       rx="2.4390244"
       ry="3.0487804" />
    <ellipse
       style="fill:#000000;stroke:#000000"
       id="path3358-74"
       cx="393.9024"
       cy="118.21585"
       rx="2.4390244"
       ry="3.0487804" />
    <ellipse
       style="fill:#000000;stroke:#000000"
       id="path3358-09"
       cx="393.90247"
       cy="74.313416"
       rx="2.4390244"
       ry="3.0487804" />
    <flowRoot
       xml:space="preserve"
       id="flowRoot3633"
       style="font-style:normal;font-weight:normal;font-size:40px;line-height:125%;font-family:sans-serif;letter-spacing:0px;word-spacing:0px;fill:#000000;fill-opacity:1;stroke:none;stroke-width:1px;stroke-linecap:butt;stroke-linejoin:miter;stroke-opacity:1"><flowRegion
         id="flowRegion3635"><rect
           id="rect3637"
           width="24.390244"
           height="375.60974"
           x="171.95122"
           y="254.80122" /></flowRegion><flowPara
         id="flowPara3639">2020ghhh</flowPara><flowPara
         id="flowPara3641" /></flowRoot>    <text
       xml:space="preserve"
       style="font-style:normal;font-weight:normal;font-size:40px;line-height:125%;font-family:sans-serif;letter-spacing:0px;word-spacing:0px;fill:#000000;fill-opacity:1;stroke:none;stroke-width:1px;stroke-linecap:butt;stroke-linejoin:miter;stroke-opacity:1"
       x="178.04878"
       y="282.85001"
       id="text3643"
       sodipodi:linespacing="125%"><tspan
         sodipodi:role="line"
         id="tspan3645"
         x="178.04878"
         y="282.85001" /><tspan
         sodipodi:role="line"
         x="178.04878"
         y="332.85001"
         id="tspan3647" /><tspan
         sodipodi:role="line"
         x="178.04878"
         y="382.85001"
         id="tspan3649" /></text>
    <text
       xml:space="preserve"
       style="font-style:normal;font-weight:normal;font-size:40px;line-height:125%;font-family:sans-serif;letter-spacing:0px;word-spacing:0px;fill:#000000;fill-opacity:1;stroke:none;stroke-width:1px;stroke-linecap:butt;stroke-linejoin:miter;stroke-opacity:1"
       x="13.414614"
       y="41.3866"
       id="text3651"
       sodipodi:linespacing="125%"><tspan
         sodipodi:role="line"
         x="13.414614"
         y="41.3866"
         id="tspan3655"
         style="font-style:normal;font-variant:normal;font-weight:normal;font-stretch:normal;font-size:20px;font-family:Arial;-inkscape-font-specification:Arial">80</tspan><tspan
         sodipodi:role="line"
         x="13.414614"
         y="66.386597"
         style="font-style:normal;font-variant:normal;font-weight:normal;font-stretch:normal;font-size:20px;font-family:Arial;-inkscape-font-specification:Arial"
         id="tspan3711"></tspan><tspan
         sodipodi:role="line"
         x="13.414614"
         y="91.386597"
         style="font-style:normal;font-variant:normal;font-weight:normal;font-stretch:normal;font-size:20px;font-family:Arial;-inkscape-font-specification:Arial"
         id="tspan3713">70</tspan><tspan
         sodipodi:role="line"
         x="13.414614"
         y="116.3866"
         style="font-style:normal;font-variant:normal;font-weight:normal;font-stretch:normal;font-size:20px;font-family:Arial;-inkscape-font-specification:Arial"
         id="tspan3707"></tspan><tspan
         sodipodi:role="line"
         x="13.414614"
         y="141.3866"
         style="font-style:normal;font-variant:normal;font-weight:normal;font-stretch:normal;font-size:20px;font-family:Arial;-inkscape-font-specification:Arial"
         id="tspan3709">60</tspan><tspan
         sodipodi:role="line"
         x="13.414614"
         y="166.3866"
         style="font-style:normal;font-variant:normal;font-weight:normal;font-stretch:normal;font-size:20px;font-family:Arial;-inkscape-font-specification:Arial"
         id="tspan3683" /><tspan
         sodipodi:role="line"
         x="13.414614"
         y="191.3866"
         style="font-style:normal;font-variant:normal;font-weight:normal;font-stretch:normal;font-size:20px;font-family:Arial;-inkscape-font-specification:Arial"
         id="tspan3685">50</tspan><tspan
         sodipodi:role="line"
         x="13.414614"
         y="216.3866"
         style="font-style:normal;font-variant:normal;font-weight:normal;font-stretch:normal;font-size:20px;font-family:Arial;-inkscape-font-specification:Arial"
         id="tspan3703"></tspan><tspan
         sodipodi:role="line"
         x="13.414614"
         y="241.3866"
         style="font-style:normal;font-variant:normal;font-weight:normal;font-stretch:normal;font-size:20px;font-family:Arial;-inkscape-font-specification:Arial"
         id="tspan3705">40</tspan><tspan
         sodipodi:role="line"
         x="13.414614"
         y="266.3866"
         style="font-style:normal;font-variant:normal;font-weight:normal;font-stretch:normal;font-size:20px;font-family:Arial;-inkscape-font-specification:Arial"
         id="tspan3699"></tspan><tspan
         sodipodi:role="line"
         x="13.414614"
         y="291.3866"
         style="font-style:normal;font-variant:normal;font-weight:normal;font-stretch:normal;font-size:20px;font-family:Arial;-inkscape-font-specification:Arial"
         id="tspan3701">30</tspan><tspan
         sodipodi:role="line"
         x="13.414614"
         y="316.3866"
         id="tspan3657"
         style="font-style:normal;font-variant:normal;font-weight:normal;font-stretch:normal;font-size:20px;font-family:Arial;-inkscape-font-specification:Arial" /><tspan
         sodipodi:role="line"
         x="13.414614"
         y="341.3866"
         id="tspan3659"
         style="font-style:normal;font-variant:normal;font-weight:normal;font-stretch:normal;font-size:20px;font-family:Arial;-inkscape-font-specification:Arial">20</tspan><tspan
         sodipodi:role="line"
         x="13.414614"
         y="366.3866"
         style="font-style:normal;font-variant:normal;font-weight:normal;font-stretch:normal;font-size:20px;font-family:Arial;-inkscape-font-specification:Arial"
         id="tspan3687" /><tspan
         sodipodi:role="line"
         x="13.414614"
         y="391.3866"
         id="tspan3663"
         style="font-style:normal;font-variant:normal;font-weight:normal;font-stretch:normal;font-size:20px;font-family:Arial;-inkscape-font-specification:Arial">10</tspan><tspan
         sodipodi:role="line"
         x="13.414614"
         y="416.3866"
         style="font-style:normal;font-variant:normal;font-weight:normal;font-stretch:normal;font-size:20px;font-family:Arial;-inkscape-font-specification:Arial"
         id="tspan3689" /><tspan
         sodipodi:role="line"
         x="13.414614"
         y="442.38608"
         id="tspan3667"
         style="font-size:20px"> 0</tspan></text>
    <flowRoot
       xml:space="preserve"
       id="flowRoot3669"
       style="font-style:normal;font-variant:normal;font-weight:normal;font-stretch:normal;font-size:20px;line-height:125%;font-family:Arial;-inkscape-font-specification:Arial;letter-spacing:0px;word-spacing:0px;fill:#000000;fill-opacity:1;stroke:none;stroke-width:1px;stroke-linecap:butt;stroke-linejoin:miter;stroke-opacity:1"
       transform="translate(-162.63415,-196.34146)"><flowRegion
         id="flowRegion3671"><rect
           id="rect3673"
           width="390.24393"
           height="45.121922"
           x="212.19513"
           y="618.21588"
           style="font-style:normal;font-variant:normal;font-weight:normal;font-stretch:normal;font-size:20px;line-height:125%;font-family:Arial;-inkscape-font-specification:Arial" /></flowRegion><flowPara
         id="flowPara3675"
         style="font-style:normal;font-variant:normal;font-weight:normal;font-stretch:normal;font-size:20px;line-height:125%;font-family:Arial;-inkscape-font-specification:Arial">  10    20    30    40    50    60    70    80    90</flowPara></flowRoot>    <text
       xml:space="preserve"
       style="font-style:normal;font-weight:normal;font-size:40px;line-height:125%;font-family:sans-serif;letter-spacing:0px;word-spacing:0px;fill:#000000;fill-opacity:1;stroke:none;stroke-width:1px;stroke-linecap:butt;stroke-linejoin:miter;stroke-opacity:1"
       x="262.19513"
       y="659.67926"
       id="text3677"
       sodipodi:linespacing="125%"><tspan
         sodipodi:role="line"
         id="tspan3679"
         x="262.19513"
         y="659.67926" /></text>
    <rect
       style="fill:#000000;stroke:#000000;stroke-width:1.00779653"
       id="rect3715"
       width="2.4390244"
       height="395.11414"
       x="46.341461"
       y="23.101732" />
    <rect
       style="fill:#000000;stroke:#000000"
       id="rect3715-8"
       width="2.4390244"
       height="389.02438"
       x="415.77682"
       y="-435.36584"
       transform="matrix(0,1,-1,0,0,0)" />
    <circle
       style="fill:#008000;stroke:#008000"
       id="path3751"
       cx="125.60975"
       cy="112.11829"
       r="4.8780489" />
    <circle
       style="fill:#0000ff;stroke:#0000ff"
       id="path3751-3"
       cx="364.63412"
       cy="101.14268"
       r="4.8780489" />
    <circle
       style="fill:#ff0000;stroke:#ff0000"
       id="path3751-0"
       cx="119.5122"
       cy="331.63052"
       r="4.8780489" />
    <text
       xml:space="preserve"
       style="font-style:normal;font-weight:normal;font-size:40px;line-height:125%;font-family:sans-serif;letter-spacing:0px;word-spacing:0px;fill:#000000;fill-opacity:1;stroke:none;stroke-width:1px;stroke-linecap:butt;stroke-linejoin:miter;stroke-opacity:1"
       x="125.60976"
       y="329.1915"
       id="text3793"
       sodipodi:linespacing="125%"><tspan
         sodipodi:role="line"
         id="tspan3795"
         x="125.60976"
         y="329.1915"
         style="fill:#ff0000">C1</tspan></text>
    <text
       xml:space="preserve"
       style="font-style:normal;font-weight:normal;font-size:40px;line-height:125%;font-family:sans-serif;letter-spacing:0px;word-spacing:0px;fill:#005700;fill-opacity:1;stroke:none;stroke-width:1px;stroke-linecap:butt;stroke-linejoin:miter;stroke-opacity:1;"
       x="134.06274"
       y="135.19591"
       id="text3793-4"
       sodipodi:linespacing="125%"><tspan
         sodipodi:role="line"
         id="tspan3795-4"
         x="134.06274"
         y="135.19591"
         style="fill:#005700;fill-opacity:1;">C2</tspan></text>
    <text
       xml:space="preserve"
       style="font-style:normal;font-weight:normal;font-size:40px;line-height:125%;font-family:sans-serif;letter-spacing:0px;word-spacing:0px;fill:#481dd6;fill-opacity:1;stroke:none;stroke-width:1px;stroke-linecap:butt;stroke-linejoin:miter;stroke-opacity:1;"
       x="369.42859"
       y="110.80566"
       id="text3793-5"
       sodipodi:linespacing="125%"><tspan
         sodipodi:role="line"
         id="tspan3795-7"
         x="369.42859"
         y="110.80566"
         style="fill:#481dd6;fill-opacity:1;">C3</tspan></text>
    <text
       xml:space="preserve"
       style="font-style:normal;font-weight:normal;font-size:40px;line-height:125%;font-family:sans-serif;letter-spacing:0px;word-spacing:0px;fill:#a05a2c;fill-opacity:1;stroke:none;stroke-width:1px;stroke-linecap:butt;stroke-linejoin:miter;stroke-opacity:1;"
       x="291.97433"
       y="329.09833"
       id="text3793-5-9"
       sodipodi:linespacing="125%"><tspan
         sodipodi:role="line"
         id="tspan3795-7-8"
         x="291.97433"
         y="329.09833"
         style="fill:#a05a2c;">C4</tspan></text>
    <circle
       style="fill:#c87137;stroke:#d4aa00"
       id="path3751-3-3"
       cx="339.02438"
       cy="336.50854"
       r="4.8780489" />
    <ellipse
       style="opacity:0;fill:#008000;stroke:#d4aa00"
       id="path3861"
       cx="625"
       cy="249.31343"
       rx="95.731705"
       ry="106.70731" />
  </g>
</svg>
