<?xml version="1.0" encoding="UTF-8" standalone="no"?>
<!-- Created with Inkscape (http://www.inkscape.org/) -->

<svg
   xmlns:dc="http://purl.org/dc/elements/1.1/"
   xmlns:cc="http://creativecommons.org/ns#"
   xmlns:rdf="http://www.w3.org/1999/02/22-rdf-syntax-ns#"
   xmlns:svg="http://www.w3.org/2000/svg"
   xmlns="http://www.w3.org/2000/svg"
   xmlns:sodipodi="http://sodipodi.sourceforge.net/DTD/sodipodi-0.dtd"
   xmlns:inkscape="http://www.inkscape.org/namespaces/inkscape"
   width="210mm"
   height="297mm"
   viewBox="0 0 744.09448819 1052.3622047"
   id="svg3346"
   version="1.1"
   inkscape:version="0.91 r13725"
   sodipodi:docname="k-means++.svg">
  <defs
     id="defs3348" />
  <sodipodi:namedview
     id="base"
     pagecolor="#ffffff"
     bordercolor="#666666"
     borderopacity="1.0"
     inkscape:pageopacity="0.0"
     inkscape:pageshadow="2"
     inkscape:zoom="0.82"
     inkscape:cx="-4.2682963"
     inkscape:cy="520"
     inkscape:document-units="px"
     inkscape:current-layer="layer1"
     showgrid="false"
     inkscape:object-nodes="true"
     inkscape:window-width="1920"
     inkscape:window-height="1028"
     inkscape:window-x="-8"
     inkscape:window-y="-8"
     inkscape:window-maximized="1" />
  <metadata
     id="metadata3351">
    <rdf:RDF>
      <cc:Work
         rdf:about="">
        <dc:format>image/svg+xml</dc:format>
        <dc:type
           rdf:resource="http://purl.org/dc/dcmitype/StillImage" />
        <dc:title></dc:title>
      </cc:Work>
    </rdf:RDF>
  </metadata>
  <g
     inkscape:label="Vrstva 1"
     inkscape:groupmode="layer"
     id="layer1">
    <ellipse
       style="display:inline;opacity:1;fill:#c83737;fill-opacity:0.48235294;stroke:#d4aa00;stroke-width:0.48528945"
       id="path3865-6"
       cx="287.19507"
       cy="540.77679"
       rx="52.696377"
       ry="48.428085" />
    <ellipse
       style="display:inline;opacity:1;fill:#00c900;fill-opacity:0.48235294;stroke:#d4aa00;stroke-width:0.77847773"
       id="path3865"
       cx="176.52126"
       cy="656.80676"
       rx="66.652893"
       ry="98.525703"
       transform="matrix(0.75914086,-0.65092639,0.54330912,0.83953273,0,0)"
       inkscape:transform-center-x="18.755796"
       inkscape:transform-center-y="-7.5629471" />
    <flowRoot
       xml:space="preserve"
       id="flowRoot3633"
       style="font-style:normal;font-weight:normal;font-size:40px;line-height:125%;font-family:sans-serif;letter-spacing:0px;word-spacing:0px;fill:#000000;fill-opacity:1;stroke:none;stroke-width:1px;stroke-linecap:butt;stroke-linejoin:miter;stroke-opacity:1"><flowRegion
         id="flowRegion3635"><rect
           id="rect3637"
           width="24.390244"
           height="375.60974"
           x="171.95122"
           y="254.80122" /></flowRegion><flowPara
         id="flowPara3639">2020ghhh</flowPara><flowPara
         id="flowPara3641" /></flowRoot>    <text
       xml:space="preserve"
       style="font-style:normal;font-weight:normal;font-size:40px;line-height:125%;font-family:sans-serif;letter-spacing:0px;word-spacing:0px;fill:#000000;fill-opacity:1;stroke:none;stroke-width:1px;stroke-linecap:butt;stroke-linejoin:miter;stroke-opacity:1"
       x="178.04878"
       y="282.85001"
       id="text3643"
       sodipodi:linespacing="125%"><tspan
         sodipodi:role="line"
         id="tspan3645"
         x="178.04878"
         y="282.85001" /><tspan
         sodipodi:role="line"
         x="178.04878"
         y="332.85001"
         id="tspan3647" /><tspan
         sodipodi:role="line"
         x="178.04878"
         y="382.85001"
         id="tspan3649" /></text>
    <text
       xml:space="preserve"
       style="font-style:normal;font-weight:normal;font-size:40px;line-height:125%;font-family:sans-serif;letter-spacing:0px;word-spacing:0px;fill:#000000;fill-opacity:1;stroke:none;stroke-width:1px;stroke-linecap:butt;stroke-linejoin:miter;stroke-opacity:1"
       x="165.85364"
       y="245.04514"
       id="text3651"
       sodipodi:linespacing="125%"><tspan
         sodipodi:role="line"
         x="165.85364"
         y="245.04514"
         id="tspan3655"
         style="font-style:normal;font-variant:normal;font-weight:normal;font-stretch:normal;font-size:20px;font-family:Arial;-inkscape-font-specification:Arial">80</tspan><tspan
         sodipodi:role="line"
         x="165.85364"
         y="270.04514"
         style="font-style:normal;font-variant:normal;font-weight:normal;font-stretch:normal;font-size:20px;font-family:Arial;-inkscape-font-specification:Arial"
         id="tspan3711" /><tspan
         sodipodi:role="line"
         x="165.85364"
         y="295.04514"
         style="font-style:normal;font-variant:normal;font-weight:normal;font-stretch:normal;font-size:20px;font-family:Arial;-inkscape-font-specification:Arial"
         id="tspan3713">70</tspan><tspan
         sodipodi:role="line"
         x="165.85364"
         y="320.04514"
         style="font-style:normal;font-variant:normal;font-weight:normal;font-stretch:normal;font-size:20px;font-family:Arial;-inkscape-font-specification:Arial"
         id="tspan3707" /><tspan
         sodipodi:role="line"
         x="165.85364"
         y="345.04514"
         style="font-style:normal;font-variant:normal;font-weight:normal;font-stretch:normal;font-size:20px;font-family:Arial;-inkscape-font-specification:Arial"
         id="tspan3709">60</tspan><tspan
         sodipodi:role="line"
         x="165.85364"
         y="370.04514"
         style="font-style:normal;font-variant:normal;font-weight:normal;font-stretch:normal;font-size:20px;font-family:Arial;-inkscape-font-specification:Arial"
         id="tspan3683" /><tspan
         sodipodi:role="line"
         x="165.85364"
         y="395.04514"
         style="font-style:normal;font-variant:normal;font-weight:normal;font-stretch:normal;font-size:20px;font-family:Arial;-inkscape-font-specification:Arial"
         id="tspan3685">50</tspan><tspan
         sodipodi:role="line"
         x="165.85364"
         y="420.04514"
         style="font-style:normal;font-variant:normal;font-weight:normal;font-stretch:normal;font-size:20px;font-family:Arial;-inkscape-font-specification:Arial"
         id="tspan3703" /><tspan
         sodipodi:role="line"
         x="165.85364"
         y="445.04514"
         style="font-style:normal;font-variant:normal;font-weight:normal;font-stretch:normal;font-size:20px;font-family:Arial;-inkscape-font-specification:Arial"
         id="tspan3705">40</tspan><tspan
         sodipodi:role="line"
         x="165.85364"
         y="470.04514"
         style="font-style:normal;font-variant:normal;font-weight:normal;font-stretch:normal;font-size:20px;font-family:Arial;-inkscape-font-specification:Arial"
         id="tspan3699" /><tspan
         sodipodi:role="line"
         x="165.85364"
         y="495.04514"
         style="font-style:normal;font-variant:normal;font-weight:normal;font-stretch:normal;font-size:20px;font-family:Arial;-inkscape-font-specification:Arial"
         id="tspan3701">30</tspan><tspan
         sodipodi:role="line"
         x="165.85364"
         y="520.04517"
         id="tspan3657"
         style="font-style:normal;font-variant:normal;font-weight:normal;font-stretch:normal;font-size:20px;font-family:Arial;-inkscape-font-specification:Arial" /><tspan
         sodipodi:role="line"
         x="165.85364"
         y="545.04517"
         id="tspan3659"
         style="font-style:normal;font-variant:normal;font-weight:normal;font-stretch:normal;font-size:20px;font-family:Arial;-inkscape-font-specification:Arial">20</tspan><tspan
         sodipodi:role="line"
         x="165.85364"
         y="570.04517"
         style="font-style:normal;font-variant:normal;font-weight:normal;font-stretch:normal;font-size:20px;font-family:Arial;-inkscape-font-specification:Arial"
         id="tspan3687" /><tspan
         sodipodi:role="line"
         x="165.85364"
         y="595.04517"
         id="tspan3663"
         style="font-style:normal;font-variant:normal;font-weight:normal;font-stretch:normal;font-size:20px;font-family:Arial;-inkscape-font-specification:Arial">10</tspan><tspan
         sodipodi:role="line"
         x="165.85364"
         y="620.04517"
         style="font-style:normal;font-variant:normal;font-weight:normal;font-stretch:normal;font-size:20px;font-family:Arial;-inkscape-font-specification:Arial"
         id="tspan3689" /><tspan
         sodipodi:role="line"
         x="165.85364"
         y="646.04462"
         id="tspan3667"
         style="font-size:20px"> 0</tspan></text>
    <flowRoot
       xml:space="preserve"
       id="flowRoot3669"
       style="font-style:normal;font-variant:normal;font-weight:normal;font-stretch:normal;font-size:20px;line-height:125%;font-family:Arial;-inkscape-font-specification:Arial;letter-spacing:0px;word-spacing:0px;fill:#000000;fill-opacity:1;stroke:none;stroke-width:1px;stroke-linecap:butt;stroke-linejoin:miter;stroke-opacity:1"
       transform="translate(-10.195122,7.3170732)"><flowRegion
         id="flowRegion3671"><rect
           id="rect3673"
           width="390.24393"
           height="45.121922"
           x="212.19513"
           y="618.21588"
           style="font-style:normal;font-variant:normal;font-weight:normal;font-stretch:normal;font-size:20px;line-height:125%;font-family:Arial;-inkscape-font-specification:Arial" /></flowRegion><flowPara
         id="flowPara3675"
         style="font-style:normal;font-variant:normal;font-weight:normal;font-stretch:normal;font-size:20px;line-height:125%;font-family:Arial;-inkscape-font-specification:Arial">  10    20    30    40    50    60    70    80    90</flowPara></flowRoot>    <text
       xml:space="preserve"
       style="font-style:normal;font-weight:normal;font-size:40px;line-height:125%;font-family:sans-serif;letter-spacing:0px;word-spacing:0px;fill:#000000;fill-opacity:1;stroke:none;stroke-width:1px;stroke-linecap:butt;stroke-linejoin:miter;stroke-opacity:1"
       x="262.19513"
       y="659.67926"
       id="text3677"
       sodipodi:linespacing="125%"><tspan
         sodipodi:role="line"
         id="tspan3679"
         x="262.19513"
         y="659.67926" /></text>
    <rect
       style="fill:#000000;stroke:#000000;stroke-width:1.00779653"
       id="rect3715"
       width="2.4390244"
       height="395.11414"
       x="198.78049"
       y="226.76027" />
    <rect
       style="fill:#000000;stroke:#000000"
       id="rect3715-8"
       width="2.4390244"
       height="389.02438"
       x="619.43536"
       y="-587.80487"
       transform="matrix(0,1,-1,0,0,0)" />
    <ellipse
       style="fill:#000000;stroke:#000000"
       id="path3358-93"
       cx="512.19513"
       cy="520.65491"
       rx="2.4390244"
       ry="3.0487804" />
    <ellipse
       style="fill:#000000;stroke:#000000"
       id="path3358-93-0"
       cx="523.17072"
       cy="503.58173"
       rx="2.4390244"
       ry="3.0487804" />
    <ellipse
       style="fill:#000000;stroke:#000000"
       id="path3358-93-5"
       cx="495.12195"
       cy="499.92319"
       rx="2.4390244"
       ry="3.0487804" />
    <ellipse
       style="fill:#000000;stroke:#000000"
       id="path3358-93-9"
       cx="509.7561"
       cy="473.0939"
       rx="2.4390244"
       ry="3.0487804" />
    <ellipse
       style="fill:#000000;stroke:#000000"
       id="path3358-93-3"
       cx="510.97562"
       cy="498.70367"
       rx="2.4390244"
       ry="3.0487804" />
    <ellipse
       style="fill:#000000;stroke:#000000"
       id="path3358-93-7"
       cx="526.82928"
       cy="482.85001"
       rx="2.4390244"
       ry="3.0487804" />
    <ellipse
       style="fill:#000000;stroke:#000000"
       id="path3358-93-70"
       cx="535.36584"
       cy="520.65491"
       rx="2.4390244"
       ry="3.0487804" />
    <ellipse
       style="fill:#000000;stroke:#000000"
       id="path3358-93-4"
       cx="539.02441"
       cy="499.92319"
       rx="2.4390244"
       ry="3.0487804" />
    <ellipse
       style="fill:#000000;stroke:#000000"
       id="path3358-93-9-6"
       cx="295.12195"
       cy="547.48413"
       rx="2.4390244"
       ry="3.0487804" />
    <ellipse
       style="fill:#000000;stroke:#000000"
       id="path3358-93-9-68"
       cx="320.73172"
       cy="514.55731"
       rx="2.4390244"
       ry="3.0487804" />
    <ellipse
       style="fill:#000000;stroke:#000000"
       id="path3358-93-9-3"
       cx="332.92682"
       cy="556.02075"
       rx="2.4390244"
       ry="3.0487804" />
    <ellipse
       style="fill:#000000;stroke:#000000"
       id="path3358-93-9-9"
       cx="310.97562"
       cy="536.50854"
       rx="2.4390244"
       ry="3.0487804" />
    <ellipse
       style="fill:#000000;stroke:#000000"
       id="path3358-93-9-0"
       cx="276.82925"
       cy="507.24026"
       rx="2.4390244"
       ry="3.0487804" />
    <ellipse
       style="fill:#000000;stroke:#000000"
       id="path3358-93-9-8"
       cx="285.36584"
       cy="534.06952"
       rx="2.4390244"
       ry="3.0487804" />
    <ellipse
       style="fill:#000000;stroke:#000000"
       id="path3358-93-9-84"
       cx="301.21951"
       cy="559.67926"
       rx="2.4390244"
       ry="3.0487804" />
    <ellipse
       style="fill:#000000;stroke:#000000"
       id="path3358-93-9-7"
       cx="325.60974"
       cy="560.8988"
       rx="2.4390244"
       ry="3.0487804" />
    <ellipse
       style="fill:#000000;stroke:#000000"
       id="path3358-93-9-4"
       cx="301.21951"
       cy="502.36221"
       rx="2.4390244"
       ry="3.0487804" />
    <ellipse
       style="fill:#000000;stroke:#000000"
       id="path3358-93-9-89"
       cx="435.36584"
       cy="368.21585"
       rx="2.4390244"
       ry="3.0487804" />
    <ellipse
       style="fill:#000000;stroke:#000000"
       id="path3358-93-9-08"
       cx="431.70731"
       cy="385.28903"
       rx="2.4390244"
       ry="3.0487804" />
    <ellipse
       style="fill:#000000;stroke:#000000"
       id="path3358-93-9-2"
       cx="464.63416"
       cy="384.06952"
       rx="2.4390244"
       ry="3.0487804" />
    <ellipse
       style="fill:#000000;stroke:#000000"
       id="path3358-93-9-69"
       cx="471.95123"
       cy="404.80124"
       rx="2.4390244"
       ry="3.0487804" />
    <ellipse
       style="fill:#000000;stroke:#000000"
       id="path3358-93-9-26"
       cx="453.65854"
       cy="403.58173"
       rx="2.4390244"
       ry="3.0487804" />
    <ellipse
       style="fill:#000000;stroke:#000000"
       id="path3358-93-9-1"
       cx="457.31708"
       cy="384.06952"
       rx="2.4390244"
       ry="3.0487804" />
    <ellipse
       style="fill:#000000;stroke:#000000"
       id="path3358-93-9-74"
       cx="456.09756"
       cy="354.80124"
       rx="2.4390244"
       ry="3.0487804" />
    <ellipse
       style="fill:#000000;stroke:#000000"
       id="path3358-93-9-44"
       cx="434.14633"
       cy="404.80124"
       rx="2.4390244"
       ry="3.0487804" />
    <ellipse
       style="fill:#000000;stroke:#000000"
       id="path3358-93-9-35"
       cx="484.14633"
       cy="384.06952"
       rx="2.4390244"
       ry="3.0487804" />
    <ellipse
       style="fill:#000000;stroke:#000000"
       id="path3358-93-9-449"
       cx="456.09756"
       cy="425.53293"
       rx="2.4390244"
       ry="3.0487804" />
    <circle
       style="display:inline;fill:#ff0000;stroke:#ff0000"
       id="path3751-0"
       cx="302.53659"
       cy="531.97192"
       r="4.8780489" />
    <text
       xml:space="preserve"
       style="font-style:normal;font-weight:normal;font-size:40px;line-height:125%;font-family:sans-serif;letter-spacing:0px;word-spacing:0px;display:inline;fill:#000000;fill-opacity:1;stroke:none;stroke-width:1px;stroke-linecap:butt;stroke-linejoin:miter;stroke-opacity:1"
       x="241.37984"
       y="570.56177"
       id="text3793"
       sodipodi:linespacing="125%"><tspan
         sodipodi:role="line"
         id="tspan3795"
         x="241.37984"
         y="570.56177"
         style="fill:#ff0000">C1</tspan></text>
    <circle
       style="display:inline;fill:#008000;stroke:#008000"
       id="path3751"
       cx="481.70731"
       cy="438.94757"
       r="4.8780489" />
    <text
       xml:space="preserve"
       style="font-style:normal;font-weight:normal;font-size:40px;line-height:125%;font-family:sans-serif;letter-spacing:0px;word-spacing:0px;display:inline;fill:#005700;fill-opacity:1;stroke:none;stroke-width:1px;stroke-linecap:butt;stroke-linejoin:miter;stroke-opacity:1"
       x="488.11072"
       y="451.08865"
       id="text3793-4"
       sodipodi:linespacing="125%"><tspan
         sodipodi:role="line"
         id="tspan3795-4"
         x="488.11072"
         y="451.08865"
         style="fill:#005700;fill-opacity:1">C2</tspan></text>
    <circle
       style="display:inline;fill:#0000ff;stroke:#0000ff"
       id="path3751-3"
       cx="258.53659"
       cy="321.87439"
       r="4.8780489" />
    <text
       xml:space="preserve"
       style="font-style:normal;font-weight:normal;font-size:40px;line-height:125%;font-family:sans-serif;letter-spacing:0px;word-spacing:0px;display:inline;fill:#481dd6;fill-opacity:1;stroke:none;stroke-width:1px;stroke-linecap:butt;stroke-linejoin:miter;stroke-opacity:1"
       x="271.24261"
       y="323.00079"
       id="text3793-5"
       sodipodi:linespacing="125%"><tspan
         sodipodi:role="line"
         id="tspan3795-7"
         x="271.24261"
         y="323.00079"
         style="fill:#481dd6;fill-opacity:1">C3</tspan></text>
  </g>
</svg>
